<?xml version="1.0" encoding="UTF-8" standalone="no"?>
<!-- Created with Inkscape (http://www.inkscape.org/) -->

<svg
   xmlns:dc="http://purl.org/dc/elements/1.1/"
   xmlns:cc="http://creativecommons.org/ns#"
   xmlns:rdf="http://www.w3.org/1999/02/22-rdf-syntax-ns#"
   xmlns:svg="http://www.w3.org/2000/svg"
   xmlns="http://www.w3.org/2000/svg"
   xmlns:xlink="http://www.w3.org/1999/xlink"
   version="1.1"
   width="2048"
   height="2048"
   id="svg2">
  <metadata
     id="metadata8">
    <rdf:RDF>
      <cc:Work
         rdf:about="">
        <dc:format>image/svg+xml</dc:format>
        <dc:type
           rdf:resource="http://purl.org/dc/dcmitype/StillImage" />
        <dc:title></dc:title>
      </cc:Work>
    </rdf:RDF>
  </metadata>
  <defs
     id="defs6" />
  <image
     xlink:href="file:///C:/dev/lua1.3.16/ftm/ep/clysm/gfx/obj/5-ferris.png"
     x="0"
     y="0"
     width="2048"
     height="2048"
     id="image10" />
  <path
     d="m 981.533,1932.3201 c -9.51719,-0.4291 -10.49185,-0.9435 -10.51769,-5.551 -0.0189,-3.3627 1.10358,-3.1344 -25.51531,-5.1897 -103.94895,-8.026 -215.2067,-38.017 -310.40067,-83.6727 -7.92037,-3.7987 -14.79251,-6.9067 -15.27144,-6.9067 -0.47892,0 -1.38335,1.125 -2.00984,2.5 -0.6265,1.375 -1.63327,2.5 -2.23729,2.5 -1.8569,0 -41.7922,-22.4072 -66.40397,-37.2584 -20.61078,-12.437 -23.24894,-14.3161 -22.68462,-16.1577 0.35122,-1.1461 0.83509,-2.7589 1.07525,-3.5839 0.2989,-1.0267 -3.90227,-4.387 -13.31537,-10.6501 -86.6738,-57.6693 -174.71299,-145.2117 -235.17594,-233.8488 -6.70567,-9.8303 -8.58176,-11.9479 -10.38053,-11.7165 -1.40797,0.1812 -2.7072,-0.5367 -3.6218,-2.0011 -8.51341,-13.631 -25.42305,-42.1278 -31.61779,-53.2835 -16.91007,-30.4524 -18.43207,-33.5654 -17.29805,-35.3813 0.84469,-1.3526 -0.173,-4.177 -4.92266,-13.6619 -21.37724,-42.6896 -44.40063,-103.4021 -58.65993,-154.6858 -13.92349,-50.0759 -24.15977,-106.6887 -29.06936,-160.771 -0.82383,-9.075 -1.4997,-18.6062 -1.50193,-21.1804 -0.004,-4.091 -0.28743,-4.7207 -2.25406,-5 -2.07066,-0.2941 -2.30187,-0.9971 -2.90075,-8.8196 -0.87788,-11.4667 -1.01178,-72.03246 -0.18899,-85.47997 0.56652,-9.25909 0.91795,-10.85847 2.47536,-11.26575 2.1944,-0.57384 2.25249,-0.94103 4.31178,-27.25428 4.10678,-52.4755 14.62363,-111.60615 29.12795,-163.77103 14.09128,-50.67934 37.31978,-112.08052 58.07931,-153.52422 2.97409,-5.93739 5.17873,-11.16531 4.89921,-11.61759 -0.84443,-1.36631 19.64288,-38.62905 36.88498,-67.08716 14.60946,-24.11294 13.87782,-23 15.12004,-23 0.59279,0 4.94049,-5.7375 9.66157,-12.75 59.66164,-88.61914 146.9001,-175.82294 236.36572,-236.2718 10.44279,-7.05584 13.13362,-9.33369 12.7516,-10.79453 -0.39537,-1.51189 3.79431,-4.4312 22.83901,-15.91386 21.76983,-13.12573 54.98446,-31.99473 63.29831,-35.95933 3.08075,-1.4691 3.77703,-1.52056 4.51074,-0.33338 0.69733,1.1283 3.97375,-0.0877 16.69091,-6.19481 96.44595,-46.31556 207.22227,-76.28534 311.82325,-84.36168 25.21567,-1.94693 25.21484,-1.94679 25.95181,-4.26879 0.51673,-1.62806 2.17929,-1.91998 14.22477,-2.49767 17.55662,-0.842 59.11112,-0.841 76.68542,0.002 13.2669,0.63627 13.6959,0.72647 14.2665,3 0.5215,2.07773 1.1724,2.34446 5.7299,2.34806 2.8279,0.002 12.5666,0.6781 21.6416,1.50193 54.0823,4.90959 110.6951,15.14587 160.771,29.06936 50.7555,14.11244 112.0776,37.31808 153.6673,58.15103 10.239,5.12889 11.0219,5.36476 12.2468,3.68965 1.2434,-1.70053 1.4869,-1.70445 4.8957,-0.0789 8.2596,3.93873 41.5308,22.84206 63.2157,35.91655 22.0604,13.30088 23.2685,14.18416 22.7676,16.64626 -0.4861,2.38901 0.4639,3.26186 11.7034,10.75314 86.2546,57.48976 176.1391,147.40667 235.512,235.59692 6.3879,9.48834 9.1153,12.75 10.6616,12.75 1.1428,0 2.7154,1.0125 3.4946,2.25 7.4898,11.89476 25.3824,42.03818 31.6083,53.25 16.734,30.1353 18.4234,33.57748 17.3439,35.33812 -0.79,1.2885 0.6609,5.14432 6.4579,17.16188 45.8345,95.01806 76.0322,206.54706 84.2068,311 2.1852,27.92225 1.9714,26.81102 5.2309,27.18681 2.6582,0.30647 2.7305,0.49569 3.3672,8.81319 0.358,4.675 0.6508,24.47495 0.6508,43.99995 0,19.5251 -0.2928,39.325 -0.6508,44 l -0.6507,8.5 -3.25,0.3134 c -3.1591,0.3046 -3.2501,0.4445 -3.2541,5 0,2.5777 -0.6781,12.1116 -1.5019,21.1866 -4.9096,54.0823 -15.1459,110.6951 -29.0694,160.771 -14.238,51.2072 -37.2847,111.9999 -58.586,154.5384 -5.9084,11.799 -5.9117,11.8108 -3.8324,13.5 2.0794,1.6892 2.0767,1.6988 -3.3035,11.6906 -14.1376,26.2557 -28.1931,50.5216 -44.7765,77.3033 -1.1477,1.8536 -2.0239,2.1933 -4.4876,1.7401 -2.9574,-0.5441 -3.3198,-0.1801 -10.6646,10.7095 -58.9486,87.3992 -146.5293,174.7489 -235.4519,234.8309 l -13.3276,9.005 1.5028,2.9059 c 0.8265,1.5983 1.5027,3.3235 1.5027,3.8338 0,2.0473 -86.1549,52.1715 -89.6739,52.1715 -0.6552,0 -1.4641,-0.8594 -1.7974,-1.9097 -1.4509,-4.5713 -2.6908,-4.3503 -18.6307,3.3214 -72.1225,34.712 -154.4843,60.8359 -234.898,74.506 -33.4764,5.6909 -79.4519,11.0664 -94.75,11.0782 l -5.25,0 -0.015,3.25 c -0.03,6.365 2.2305,6.044 -44.1406,6.269 -23.2893,0.113 -46.37925,0.024 -51.3111,-0.1989 z M 1019,1898 c 0,-9.9 -0.3423,-18 -0.7607,-18 -0.4184,0 -8.5944,7.8433 -18.1689,17.4296 l -17.40827,17.4295 3.91894,0.4024 c 2.15541,0.2212 10.33143,0.4779 18.16893,0.5704 L 1019,1916 l 0,-18 z m 40.8396,17.3414 5.3395,-0.6412 -17.3288,-17.3501 c -9.5309,-9.5426 -17.6712,-17.3501 -18.0896,-17.3501 -0.4184,0 -0.7607,8.1 -0.7607,18 l 0,18 12.75,-0.01 c 7.0125,0 15.1528,-0.2972 18.0896,-0.6499 z M 999.18711,1891 l 19.79569,-23.5 0.01,-53.25 c 0.01,-52.5862 -0.016,-53.25 -1.9914,-53.25 -1.8622,0 -2,-0.6667 -2,-9.6772 l 0,-9.6771 -60.1397,-112.5729 c -33.07683,-61.915 -60.43614,-112.9096 -60.79847,-113.3213 -0.36232,-0.4116 -3.78696,1.1893 -7.6103,3.5577 -3.82334,2.3684 -29.67653,18.429 -57.45153,35.6903 -27.775,17.2612 -55.675,34.5878 -62,38.5035 -13.79952,8.543 -24.16314,15.0008 -43.32518,26.997 -7.90688,4.95 -22.75138,14.1731 -32.98778,20.4958 l -18.61163,11.4958 -4.15054,7.2542 c -4.28871,7.4957 -4.80083,7.9782 -6.57955,6.1995 -0.73957,-0.7396 -8.99979,12.7085 -27.64738,45.0112 l -26.5927,46.0659 5.47106,30.6792 c 3.00908,16.8735 5.5729,30.7225 5.69738,30.7756 0.12448,0.053 2.02632,1.2982 4.22632,2.767 5.32566,3.5556 27.20939,13.9473 48.62751,23.0911 65.41657,27.9276 132.99565,47.8735 201.87249,59.5824 38.9575,6.6227 77.90122,10.9767 95.94571,10.7269 L 979.39143,1914.5 999.18711,1891 z M 1100,1913.494 c 99.4748,-9.0303 195.4598,-33.8611 286,-73.9866 13.7222,-6.0814 42.4707,-19.8425 43.7263,-20.9306 0.1245,-0.1079 2.6883,-14.0017 5.6974,-30.8752 l 5.4711,-30.6792 -26.5927,-46.0659 c -18.6476,-32.3027 -26.9078,-45.7508 -27.6474,-45.0112 -0.5801,0.5801 -1.3732,1.0547 -1.7625,1.0547 -0.3893,0 -2.7982,-3.7125 -5.3531,-8.25 -3.8904,-6.9092 -5.4899,-8.7533 -9.8422,-11.3469 -2.8583,-1.7032 -11.2719,-6.9095 -18.6969,-11.5694 -7.425,-4.6599 -20.25,-12.6587 -28.5,-17.7752 -8.25,-5.1165 -17.475,-10.8468 -20.5,-12.734 -38.6715,-24.126 -43.0809,-26.8691 -70.5,-43.8588 -10.45,-6.4751 -30.7,-19.0573 -45,-27.9604 -33.544,-20.8844 -30.074,-19.234 -32.1103,-15.2721 -0.9235,1.7967 -27.4259,51.4168 -58.8943,110.2668 -31.4684,58.85 -58.4033,109.3475 -59.8553,112.2168 -2.1582,4.2644 -2.6401,6.5919 -2.6401,12.75 0,6.8665 -0.177,7.5332 -2,7.5332 -1.9751,0 -1.9999,0.664 -1.9921,53.25 l 0.01,53.25 7.2422,8.5828 c 3.9831,4.7205 12.9915,15.408 20.0185,23.75 l 12.7764,15.1672 7.2236,0 c 3.973,0 14.6486,-0.6781 23.7236,-1.5019 z M 614.01536,1815.25 c 0.0373,-1.8223 -12.39995,-47.2461 -12.92709,-47.2128 -1.3845,0.088 -17.88321,30.5221 -17.02398,31.4034 1.12166,1.1506 28.13671,16.4275 29.18571,16.5044 0.4125,0.03 0.75691,-0.2825 0.76536,-0.695 z m 845.53794,-12.9836 c 2.7207,-1.5985 4.8808,-3.3249 4.8003,-3.8364 -0.2363,-1.5003 -16.7961,-30.3595 -17.4419,-30.3964 -0.5425,-0.031 -12.9617,45.4153 -12.9271,47.3048 0.015,0.7981 15.008,-6.8673 25.5687,-13.072 z m -876.21071,-23.8769 c 4.86342,-8.5457 8.68842,-15.6721 8.5,-15.8365 -0.41443,-0.3615 -46.85819,12.1293 -47.50517,12.7762 -0.44132,0.4414 6.15699,4.7131 21.66258,14.0242 4.125,2.4771 7.725,4.5195 8,4.5388 0.275,0.019 4.47917,-6.957 9.34259,-15.5027 z m 898.37861,11.0185 c 13.8482,-8.1748 22.3667,-13.6535 21.9214,-14.0988 -0.6337,-0.6336 -47.079,-13.1105 -47.4852,-12.7562 -0.3123,0.2725 17.0519,31.3262 17.5638,31.4106 0.1217,0.02 3.7217,-2.03 8,-4.5556 z m -912.27447,-26.8628 c 15.83789,-5.7501 28.91514,-10.5876 29.06056,-10.75 0.14542,-0.1624 12.04832,-20.7216 26.45088,-45.6872 22.77404,-39.4768 25.99911,-45.5793 24.7486,-46.8298 -1.2505,-1.2505 -0.82162,-2.5372 3.29111,-9.8738 l 4.72898,-8.436 0.65385,-20.2342 c 0.35961,-11.1288 0.88649,-26.0842 1.17083,-33.2342 0.28434,-7.15 1.38786,-41.125 2.45225,-75.5 1.0644,-34.375 2.1665,-68.125 2.44911,-75 0.28261,-6.875 0.80782,-21.8917 1.16714,-33.3705 l 0.65331,-20.8706 -18.88667,0.6413 c -10.38768,0.3527 -24.51168,0.8462 -31.38668,1.0966 -6.875,0.2504 -21.05,0.6928 -31.5,0.983 -10.45,0.2903 -25.075,0.7472 -32.5,1.0154 -7.425,0.2682 -19.8,0.7154 -27.5,0.9939 -7.7,0.2784 -22.55,0.7373 -33,1.0198 -10.45,0.2825 -24.625,0.7257 -31.5,0.9848 -6.875,0.2591 -20.825,0.7392 -31,1.067 l -18.5,0.596 -8.5,4.8337 c -7.42645,4.2231 -8.65162,4.6397 -9.70048,3.2982 -1.41801,-1.8136 3.29954,-4.3216 -52.56916,27.9465 -21.8733,12.6334 -40.20669,23.7864 -40.74086,24.7845 -0.53417,0.9981 -5.50191,14.3395 -11.03943,29.6476 -9.87634,27.3024 -10.03691,27.8861 -8.42521,30.6292 1.32209,2.2502 1.40097,3.088 0.40384,4.2895 -1.0281,1.2388 0.0503,3.405 6.33066,12.7165 57.99946,85.9919 141.04961,169.0702 229.23965,229.3173 10.97861,7.5001 22.36396,14.1389 24.57628,14.3305 0.31641,0.027 13.53356,-4.6549 29.37144,-10.405 z m 955.69987,-0.4241 c 80.1047,-53.2888 155.8989,-125.7612 215.5687,-206.1211 14.9377,-20.1172 27.4909,-38.8574 26.7893,-39.9926 -0.3411,-0.5518 0.1075,-2.2417 0.9967,-3.7553 1.5771,-2.6844 1.3693,-3.4365 -8.4514,-30.5849 -5.5375,-15.3081 -10.5052,-28.6495 -11.0394,-29.6476 -0.5342,-0.9981 -18.8676,-12.1511 -40.7409,-24.7845 -55.9622,-32.3221 -51.1504,-29.7671 -52.5691,-27.9131 -1.0609,1.3864 -1.9566,1.1127 -7.7005,-2.3532 -3.575,-2.1572 -8.075,-4.3478 -10,-4.868 -1.925,-0.5202 -15.65,-1.2357 -30.5,-1.59 -14.85,-0.3542 -29.025,-0.8067 -31.5,-1.0054 -2.475,-0.1987 -15.975,-0.6441 -30,-0.9898 -14.025,-0.3456 -27.975,-0.8031 -31,-1.0165 -3.025,-0.2134 -16.75,-0.6471 -30.5,-0.9638 -13.75,-0.3167 -28.375,-0.7799 -32.5,-1.0293 -4.125,-0.2495 -17.175,-0.7117 -29,-1.0272 -11.825,-0.3154 -25.4375,-0.7976 -30.25,-1.0716 -8.6055,-0.4898 -8.7498,-0.4601 -8.7401,1.7974 0.01,1.2625 0.4374,14.6704 0.9599,29.7954 0.9253,26.7856 1.5185,44.75 2.5594,77.5 0.2797,8.8 0.7199,21.4 0.9783,28 0.2583,6.6 0.7112,21.9 1.0065,34 0.2952,12.1 0.7376,24.7 0.9831,28 0.2454,3.3 0.7189,18.15 1.0521,33 0.3332,14.85 0.8522,27.9 1.1534,29 0.3011,1.1 2.0217,4.5356 3.8235,7.6347 2.8856,4.9633 3.1004,5.8102 1.8026,7.108 -1.2978,1.2978 1.6468,6.8819 24.7131,46.8653 14.4026,24.9656 26.3066,45.526 26.4535,45.6898 0.4724,0.5269 56.9627,21.0518 58.1513,21.1283 0.6307,0.041 8.5057,-4.8216 17.5,-10.805 z m -379.8293,-254.0878 c -0.6503,-0.5578 -36.2763,-22.7474 -63.5744,-39.597 -2.6164,-1.615 -9.3664,-5.8159 -15,-9.3354 -25.8922,-16.1759 -30.8207,-19.1935 -32.2323,-19.7352 -1.3434,-0.5155 -1.5045,15.7845 -1.4554,147.2773 l 0.055,147.857 56.5121,-112.8827 c 31.0817,-62.0856 56.1443,-113.1983 55.6949,-113.584 z m -130.707,-67.7564 c -0.2181,-0.2181 -10.6821,6.0005 -23.25342,13.819 -12.57129,7.8185 -32.88502,20.4521 -45.14163,28.0746 -26.12415,16.2471 -40.27259,25.0908 -41.48867,25.9333 -0.47936,0.3321 24.02356,50.3966 54.45093,111.2543 l 55.32249,110.6505 0.2534,-144.6676 c 0.1393,-79.5672 0.075,-144.846 -0.1431,-145.0641 z M 729,1609.4108 c 31.97159,-21.1745 82.44111,-54.5119 124,-81.9076 18.975,-12.5083 34.62814,-22.8542 34.78476,-22.9909 0.15662,-0.1367 -13.16204,-25.3953 -29.59704,-56.1304 -16.43499,-30.735 -30.5438,-57.1539 -31.35292,-58.7087 -1.46634,-2.8175 -1.70989,-2.4131 -74.90296,124.3697 -40.38751,69.9581 -73.58357,127.5978 -73.76901,128.0883 -0.35712,0.9446 12.53704,-7.3545 50.83717,-32.7204 z m 638.8817,29.3392 c -2.5124,-4.7559 -143.1181,-248.2869 -143.7327,-248.9471 -0.4805,-0.5162 -60.5425,110.1654 -61.8795,114.0307 -0.1268,0.3665 6.6232,5.1524 15,10.6353 8.3768,5.4829 35.2555,23.1964 59.7305,39.3633 24.475,16.167 55.3,36.5234 68.5,45.2367 13.2,8.7132 32.775,21.6772 43.5,28.809 10.725,7.1317 19.6283,13.0017 19.7852,13.0444 0.1568,0.043 -0.2497,-0.9348 -0.9035,-2.1723 z m 16.696,-49.4052 c -1.3951,-23.0146 -2.7805,-45.6698 -3.0785,-50.3448 -0.971,-15.2319 -4.3749,-72.6819 -6.4878,-109.5 -1.1363,-19.8 -2.311,-38.3625 -2.6106,-41.25 l -0.5447,-5.25 -4.9281,-0.125 c -2.7104,-0.069 -5.7155,-0.2093 -6.678,-0.3124 -0.9625,-0.1031 -14.575,-0.5488 -30.25,-0.9905 -15.675,-0.4417 -29.175,-0.9258 -30,-1.0757 -0.825,-0.15 -14.9281,-0.6032 -31.3403,-1.0072 l -29.8402,-0.7345 2.8402,4.9619 c 61.0835,106.7116 144.9155,250.7078 145.1474,249.3161 0.169,-1.0137 -0.8343,-20.6733 -2.2294,-43.6879 z m -647.73097,-85.029 C 776.53103,1435.4644 809,1378.8431 809,1378.4905 c 0,-0.3526 -4.6125,-0.3994 -10.25,-0.1042 -5.6375,0.2953 -19.925,0.8131 -31.75,1.1507 -11.825,0.3376 -24.2,0.7691 -27.5,0.959 -3.3,0.1899 -18.375,0.6567 -33.5,1.0374 -15.125,0.3806 -27.58758,0.7665 -27.69463,0.8573 -0.22058,0.1873 -1.96236,28.4013 -6.2728,101.6093 -1.63537,27.775 -3.20385,53.875 -3.4855,58 -0.5763,8.4402 -0.95196,14.719 -3.05135,51 -0.81155,14.025 -1.74443,28.425 -2.07307,32 -0.372,4.0467 -0.24494,6.1226 0.33664,5.5 0.51379,-0.55 33.40314,-57.3329 73.08744,-126.1842 z m -454.3133,-22.9012 c 3.52801,-13.09 6.26101,-23.9535 6.07334,-24.1412 -0.18768,-0.1876 -7.17406,3.6115 -15.5253,8.4425 -11.86983,6.8666 -15.08439,9.1649 -14.72741,10.53 0.56597,2.1643 16.98389,29.7495 17.4366,29.2968 0.18052,-0.1805 3.21477,-11.0382 6.74277,-24.1281 z m 1504.54047,-0.089 c 1.8762,-3.3958 3.1895,-6.3927 2.9186,-6.6598 -1.1819,-1.1654 -30.2805,-17.7114 -30.595,-17.397 -0.192,0.1921 2.0699,9.3226 5.0266,20.2901 2.9567,10.9674 5.9043,21.9135 6.5504,24.3246 l 1.1746,4.3838 5.7569,-9.3838 c 3.1662,-5.1611 7.2918,-12.1622 9.1679,-15.5579 z m -870.65983,4.3612 c 9.39726,-6.2221 32.35237,-21.4007 51.01136,-33.7302 38.85497,-25.6745 37.23897,-22.9202 14.57457,-24.8399 -42.56692,-3.6055 -86.70848,-15.7811 -132.25,-36.4785 -3.1625,-1.4373 -5.75,-2.3923 -5.75,-2.1223 0,1.1808 54.07089,108.4838 54.66589,108.4838 0.36424,0 8.35092,-5.0908 17.74818,-11.3129 z M 1179.5,1442 c 15.127,-30.25 27.2859,-55 27.0199,-55 -0.266,0 -4.4293,1.831 -9.2518,4.0689 -42.5155,19.7296 -89.5548,32.6063 -131.7681,36.0705 -7.15,0.5868 -13.8467,1.3797 -14.8815,1.762 -1.4548,0.5375 6.2557,6.0602 34,24.3529 19.7348,13.0117 42.6315,28.1442 50.8815,33.6276 8.25,5.4835 15.3367,10.0033 15.7482,10.044 0.4115,0.041 13.1248,-24.6759 28.2518,-54.9259 z m -911.20087,15 c 8.08064,-4.675 14.69405,-8.7533 14.69647,-9.063 0.004,-0.5232 -45.47668,-12.9599 -47.33633,-12.9441 -0.4624,0 1.27975,3.9446 3.87146,8.7571 7.7875,14.4605 12.58249,22.3827 13.35045,22.0574 0.39923,-0.169 7.3373,-4.1324 15.41795,-8.8074 z m 1536.42067,-6.5083 c 4.5389,-8.169 8.0641,-15.0411 7.8337,-15.2715 -0.5656,-0.5656 -47.5562,12.0034 -47.5433,12.7168 0.016,0.8908 29.3786,17.8783 30.4734,17.6302 0.5409,-0.1226 4.6972,-6.9066 9.2362,-15.0755 z M 336.86614,1417.3832 c 54.62998,-31.5434 49.30416,-28.1965 48.18776,-30.2825 -0.77931,-1.4561 0.0958,-2.3359 5.3013,-5.3299 l 6.23469,-3.5859 68.70506,-110.533 c 37.78778,-60.7932 68.69323,-110.8973 68.67877,-111.3425 -0.0145,-0.4452 -50.97695,-28.0344 -113.25,-61.3094 L 307.5,1034.5 l -10,-0.5 c -8.73781,-0.4369 -9.98247,-0.7209 -9.86111,-2.25 0.13068,-1.6466 -3.01881,-1.75 -53.28383,-1.75 l -53.42272,0 -23.46617,19.7294 C 135.40454,1068.278 134,1069.6603 134,1072.8231 c 0,2.5231 -0.49998,3.4949 -2,3.8872 -2.4341,0.6365 -2.43912,0.8631 -0.49401,22.2897 9.85981,108.6123 38.92029,214.3979 85.21805,310.2098 7.7137,15.9633 8.74298,17.6106 10.43694,16.704 1.55709,-0.8333 2.17587,-0.4844 3.60915,2.035 1.13208,1.9899 2.76658,3.2308 4.72987,3.5908 13.73722,2.5187 57.18182,10.3084 57.86614,10.3755 0.47637,0.047 20.05137,-10.9927 43.5,-24.5319 z m 1447.58796,19.133 c 16.9657,-3.016 30.9153,-5.6035 30.999,-5.75 2.1928,-3.835 3.8232,-5.7135 4.5624,-5.2566 1.1281,0.6972 10.0245,-16.8896 20.4921,-40.5096 40.3823,-91.1224 65.242,-187.5671 74.0856,-287.4199 1.2644,-14.2757 1.3972,-19.3658 0.5413,-20.7364 -0.624,-0.9991 -1.1345,-3.0694 -1.1345,-4.6007 0,-2.4059 -3.1879,-5.4644 -23.4662,-22.5136 L 1867.0677,1030 l -53.4228,0 c -50.265,0 -53.4145,0.1034 -53.2838,1.75 0.1195,1.505 -1.0513,1.82 -8.3611,2.25 l -8.5,0.5 -112,59.8815 c -61.6,32.9349 -112.7661,60.2768 -113.7024,60.7598 -1.4823,0.7646 -0.6345,2.5901 6.5568,14.1184 13.8503,22.2031 45.3332,72.8771 88.993,143.2403 36.7259,59.1883 42.0918,67.3539 46.0228,70.035 3.5468,2.4191 4.2612,3.3722 3.5202,4.6964 -0.7461,1.3332 -0.087,2.1524 3.3399,4.1488 2.3484,1.3681 22.9447,13.3027 45.7697,26.5211 22.825,13.2185 41.5241,24.0483 41.5536,24.0662 0.03,0.018 13.9347,-2.4352 30.9005,-5.4513 z M 1015,1257.4096 c 0,-125.9407 -0.2566,-158.538 -1.25,-158.7921 -5.52,-1.4118 -15.62797,-3.9301 -17.28615,-4.3066 -1.76855,-0.4015 -6.23167,6.8089 -33.9591,54.8634 -17.55761,30.4291 -53.15238,92.1032 -79.09949,137.0536 l -47.17655,81.7279 6.13564,3.4125 c 31.04244,17.2651 79.28191,33.3301 120.13565,40.0083 16.89869,2.7624 49.4417,5.7944 51.75,4.8215 0.4125,-0.1739 0.75,-71.6287 0.75,-158.7885 z m 42.5,157.4909 c 35.2051,-2.9331 75.9191,-12.5886 109.8293,-26.0467 12.8703,-5.1079 30.6145,-13.2075 38.3063,-17.4855 l 6.1357,-3.4125 -47.1766,-81.7279 c -25.9471,-44.9504 -61.5418,-106.6245 -79.0995,-137.0536 -27.7274,-48.0545 -32.1905,-55.2649 -33.959,-54.8634 -1.6582,0.3765 -11.7662,2.8948 -17.2862,4.3066 -0.9934,0.2541 -1.25,32.8299 -1.25,158.6844 0,87.1006 0.1873,158.5523 0.4162,158.7814 0.532,0.5327 7.7444,0.1785 24.0838,-1.1828 z m -616,-30.3741 c 7.7,-0.3268 15.575,-0.7871 17.5,-1.023 1.925,-0.2359 8.225,-0.6812 14,-0.9895 5.775,-0.3084 13.875,-0.7647 18,-1.0139 4.125,-0.2492 12.225,-0.7022 18,-1.0066 5.775,-0.3044 12.525,-0.7488 15,-0.9875 2.475,-0.2387 9.45,-0.6857 15.5,-0.9935 6.05,-0.3077 14.6,-0.7777 19,-1.0444 4.4,-0.2667 15.425,-0.9311 24.5,-1.4765 9.075,-0.5455 19.875,-1.2035 24,-1.4625 4.125,-0.2589 11.775,-0.7063 17,-0.9942 13.41564,-0.7393 42.47388,-2.7056 42.63349,-2.8849 0.0734,-0.082 0.4212,-12.0749 0.77286,-26.6499 0.35166,-14.575 0.83923,-28.975 1.0835,-32 0.24426,-3.025 0.6925,-16.075 0.99608,-29 0.30358,-12.925 0.82195,-27.6625 1.15194,-32.75 0.32998,-5.0875 0.35282,-9.25 0.0507,-9.25 -0.30206,0 -17.56808,9.8316 -38.36891,21.8479 -20.80084,12.0163 -75.84471,43.7913 -122.31971,70.6111 -46.475,26.8197 -85.85,49.6278 -87.5,50.6845 l -3,1.9213 4,-0.4722 c 2.2,-0.2597 10.3,-0.7395 18,-1.0662 z m 1186.4772,1.1278 c -0.2624,-0.2569 -21.8522,-12.8154 -47.9772,-27.9078 -166.5277,-96.2031 -197.6945,-114.1108 -199.3639,-114.5494 -1.4494,-0.3809 -1.742,-0.068 -1.3159,1.4066 0.3013,1.043 0.8562,15.1714 1.2331,31.3964 0.3768,16.225 0.8076,30.175 0.9573,31 0.1497,0.825 0.6001,15 1.0009,31.5 0.4007,16.5 1.105,30.7213 1.565,31.6029 0.6386,1.2238 2.6134,1.6499 8.3505,1.8017 4.1327,0.1094 8.3148,0.3467 9.2935,0.5274 0.9787,0.1807 8.5295,0.6574 16.7795,1.0594 8.25,0.4019 15.675,0.8511 16.5,0.9981 0.825,0.147 8.4685,0.5933 16.9857,0.9917 8.5171,0.3984 16.1671,0.8511 17,1.006 0.8328,0.1548 8.0393,0.5938 16.0143,0.9754 7.975,0.3816 15.625,0.8474 17,1.035 1.375,0.1877 9.25,0.6516 17.5,1.0309 8.25,0.3794 15.675,0.8117 16.5,0.9606 0.825,0.149 7.8,0.5737 15.5,0.9439 7.7,0.3702 15.575,0.8495 17.5,1.0651 1.925,0.2156 9.125,0.68 16,1.0319 6.875,0.352 17,0.95 22.5,1.3288 15.9623,1.0996 20.9876,1.2948 20.4772,0.7954 z m -40.588,-100.2835 c -32.2865,-48.8789 -63.799,-96.6332 -70.0278,-106.1207 -6.2288,-9.4875 -11.5281,-17.25 -11.7763,-17.25 -0.2482,0 -25.5689,13.433 -56.2682,29.851 -30.6993,16.4181 -57.3335,30.6326 -59.1871,31.5878 l -3.3701,1.7368 2.8701,1.7444 c 1.5786,0.9593 26.7202,15.5152 55.8702,32.3464 29.15,16.8311 86.075,49.7134 126.5,73.0719 40.425,23.3584 73.6332,42.3423 73.796,42.1865 0.1627,-0.1559 -26.1203,-40.2752 -58.4068,-89.1541 z M 483.5,1327.9837 c 37.4,-21.5988 89.825,-51.8641 116.5,-67.2564 63.04412,-36.3783 62.24129,-35.897 61.30397,-36.7573 -2.06695,-1.8971 -115.56661,-61.9257 -116.26756,-61.4925 C 544.0073,1163.1135 407,1370.5725 407,1371.4947 c 0,0.3825 1.9125,-0.4153 4.25,-1.7726 2.3375,-1.3574 34.85,-20.1397 72.25,-41.7384 z m 887.5,38.0337 c 0,-2.6721 -0.4534,-11.5316 -1.0076,-19.6878 -1.0706,-15.7578 -5.9924,-97.3395 -5.9924,-99.3278 0,-0.6477 -3.6441,3.9245 -8.098,10.1603 -27.7087,38.7948 -62.8789,73.9707 -99.1321,99.1481 -4.8016,3.3346 -8.6003,6.1927 -8.4417,6.3513 0.6066,0.6066 7.6338,1.2528 19.6718,1.809 6.875,0.3177 15.2,0.7773 18.5,1.0215 6.6917,0.4951 17.9938,1.1922 33,2.0355 5.5,0.3091 12.7,0.7456 16,0.9699 3.3,0.2244 11.625,0.7084 18.5,1.0755 6.875,0.3671 12.59,0.7409 12.7001,0.8307 0.1101,0.09 1.1226,0.2328 2.25,0.3177 1.8064,0.1361 2.0499,-0.4226 2.0499,-4.7039 z m -655,2.011 c 7.975,-0.5072 19.225,-1.1816 25,-1.4987 12.58701,-0.6911 24.17127,-1.4032 33,-2.0286 3.575,-0.2532 10.775,-0.742 16,-1.0863 5.225,-0.3442 9.60355,-0.7195 9.73011,-0.8338 0.12656,-0.1143 -3.69844,-2.9344 -8.5,-6.2668 -35.24877,-24.4633 -69.18388,-58.0663 -96.59675,-95.6511 -4.74835,-6.5103 -8.63382,-11.2353 -8.63438,-10.5 -10e-4,1.7043 -4.78653,82.0083 -5.44267,91.3369 -0.27079,3.85 -0.78994,11.9028 -1.15367,17.8951 l -0.66132,10.8951 11.37934,-0.6697 c 6.25864,-0.3684 17.90434,-1.0848 25.87934,-1.5921 z M 899.2289,1222.75 c 43.24303,-74.9375 78.76936,-136.7121 78.9474,-137.2768 0.17803,-0.5647 -2.86593,-4.038 -6.76437,-7.7184 l -7.08806,-6.6915 -56.41194,32.5812 C 876.88537,1121.5642 816.4,1156.4773 773.5,1181.2291 c -42.9,24.7518 -79.23608,45.7606 -80.74684,46.6863 l -2.74684,1.6831 8.74684,12.9537 c 29.69414,43.9758 63.6739,78.0062 106.89475,107.0541 7.61865,5.1203 14.10076,9.3286 14.40469,9.3517 0.30393,0.023 35.93327,-61.2705 79.1763,-136.208 z m 343.1268,126.7951 c 42.6222,-28.3952 77.1676,-62.9735 106.8911,-106.9929 l 8.7469,-12.9537 -2.7469,-1.6831 c -1.5107,-0.9257 -37.8468,-21.9345 -80.7468,-46.6863 -42.9,-24.7518 -103.3854,-59.6649 -134.4119,-77.5846 l -56.412,-32.5812 -7.088,6.6915 c -3.8985,3.6804 -6.9424,7.1537 -6.7644,7.7184 0.5138,1.6298 157.5282,273.5268 157.9555,273.5268 0.2114,0 6.7709,-4.2547 14.5765,-9.4549 z M 715,1194.2778 c 16.225,-9.3621 71.125,-41.0691 122,-70.4601 50.875,-29.391 98.25647,-56.7464 105.29216,-60.7898 7.03569,-4.0433 12.64791,-7.8412 12.47161,-8.4397 -0.1763,-0.5985 -1.28601,-4.2382 -2.46601,-8.0882 -1.18,-3.85 -2.4133,-8.2375 -2.74066,-9.75 l -0.5952,-2.75 -158.63099,0 -158.63099,0 0.69092,12.25 c 2.8923,51.2799 17.58508,105.7802 41.26263,153.0564 7.28541,14.5466 7.48922,14.8303 9.64461,13.427 1.21106,-0.7886 15.47692,-9.0936 31.70192,-18.4556 z m 659.3883,4.9451 c 23.6337,-47.1885 38.3306,-101.7298 41.2209,-152.9729 l 0.6909,-12.25 -158.631,0 -158.631,0 -0.5692,2.75 c -0.313,1.5125 -1.6861,6.3129 -3.0514,10.6676 -1.3653,4.3546 -2.1303,8.2164 -1.6999,8.5817 0.4303,0.3653 7.0824,4.2757 14.7824,8.6897 33.2599,19.066 236.0478,136.2248 246.5,142.4129 6.325,3.7447 11.6097,6.8287 11.7437,6.8533 0.1341,0.025 3.5742,-6.6049 7.6446,-14.7323 z m 123.793,-48.8362 c -4.6414,-8.1082 -68.8684,-104.0801 -69.4235,-103.737 -0.4168,0.2576 -0.7583,3.0293 -0.759,6.1593 0,14.943 -5.4983,49.6355 -11.6722,73.691 -6.1531,23.9744 -17.4255,54.8319 -26.9113,73.6681 -1.8784,3.7301 -3.4153,7.0177 -3.4153,7.3058 0,0.2881 25.3941,-12.1709 56.4313,-27.6866 38.1581,-19.0755 56.2107,-28.5958 55.75,-29.4006 z m -840.02321,48.9265 c -18.46504,-36.5791 -33.52748,-91.163 -37.38174,-135.4656 -0.66259,-7.6162 -1.44583,-13.8185 -1.74053,-13.7828 -0.6884,0.083 -67.22949,101.0837 -66.83338,101.4442 0.90415,0.8228 108.34998,54.227 108.61304,53.9844 0.17351,-0.1601 -1.02232,-2.9412 -2.65739,-6.1802 z M 560.62192,1114.25 c 10.85851,-17.4625 26.4107,-42.4526 34.56041,-55.5336 8.14972,-13.081 14.81767,-23.9935 14.81767,-24.25 0,-0.2565 -65.8125,-0.4416 -146.25,-0.4112 L 317.5,1034.1103 429,1090 c 61.325,30.7393 111.58531,55.9145 111.68959,55.9448 0.10427,0.03 9.07382,-14.2323 19.93233,-31.6948 z M 1587.341,1034.2466 c -80.1172,-0.1393 -145.8638,-0.057 -146.1035,0.1825 -0.2397,0.2398 6.6531,11.8288 15.3173,25.7534 15.5083,24.9242 24.0545,38.6826 42.4359,68.3175 5.1172,8.25 9.7264,15.5428 10.2428,16.2063 0.6925,0.8897 30.1817,-13.4144 112.357,-54.5 l 111.418,-55.7063 -145.6675,-0.2534 z m -552.1402,43.6564 c 20.7244,-4.2901 38.8107,-22.7306 42.8617,-43.7012 6.534,-33.8242 -19.8496,-65.74017 -54.1464,-65.50033 -24.90244,0.17415 -45.7656,15.75411 -53.07084,39.63163 -2.99161,9.7783 -2.31215,26.3732 1.45245,35.4746 10.43239,25.2215 36.78039,39.5029 62.90309,34.0953 z m -883.46122,-30.1423 c 9.49323,-9.4816 17.26096,-17.4691 17.26161,-17.75 6.6e-4,-0.2809 -8.116,-0.3784 -18.03702,-0.2168 l -18.03821,0.2939 0.12113,17.4561 c 0.0666,9.6009 0.41609,17.4561 0.7766,17.4561 0.3605,0 8.42265,-7.7577 17.91589,-17.2393 z m 1763.21332,-0.2168 0.1211,-17.4561 -18.0382,-0.2939 c -9.921,-0.1616 -18.0376,-0.074 -18.037,0.1957 0,0.7614 34.3936,35.0104 35.1564,35.0104 0.3721,0 0.7311,-7.8552 0.7977,-17.4561 z M 151.96371,1000.4637 C 142.37046,990.85865 134.21696,983 133.84483,983 c -0.37214,0 -0.73118,7.86455 -0.79788,17.4768 l -0.12127,17.4767 17.78716,0.2733 c 9.78294,0.1502 17.99101,0.1444 18.24016,-0.013 0.24915,-0.1575 -7.39603,-8.145 -16.98929,-17.75 z m 1762.98919,-0.01 c -0.067,-9.60086 -0.4161,-17.4561 -0.7766,-17.4561 -0.7631,0 -35.1757,34.2285 -35.1775,34.9893 -6e-4,0.2809 8.116,0.3784 18.037,0.2168 l 18.0382,-0.2939 -0.1211,-17.4561 z M 287.63889,1016.25 c -0.12317,-1.552 1.21905,-1.8066 11.86111,-2.25 l 12,-0.5 111.48589,-59.70768 c 61.31725,-32.83923 111.63409,-60.15226 111.81521,-60.69562 0.18112,-0.54336 -3.02077,-6.29991 -7.11531,-12.79232 C 523.59125,873.81197 513.95717,858.375 506.27674,846 c -7.68044,-12.375 -19.27929,-31.05 -25.77522,-41.5 -6.49593,-10.45 -15.7912,-25.4125 -20.65615,-33.25 -4.86495,-7.8375 -12.9689,-20.8875 -18.00876,-29 -5.03987,-8.1125 -16.5633,-26.675 -25.60762,-41.25 -9.04432,-14.575 -17.07539,-27.50368 -17.84681,-28.73039 -0.77143,-1.22672 -4.29588,-3.89447 -7.83213,-5.92834 -5.37564,-3.0918 -6.27654,-3.98382 -5.49615,-5.44198 1.11638,-2.08598 6.43933,1.25921 -48.1689,-30.27157 l -42.615,-24.6059 -30.78544,5.47286 c -16.93198,3.01007 -30.85393,5.59266 -30.93765,5.73909 -2.8829,5.04198 -3.70289,5.75312 -5.5153,4.78314 C 225.98654,621.45761 224.72178,621 224.22104,621 c -1.18163,0 -13.98563,26.69179 -23.50521,49 -37.56279,88.02479 -60.51542,179.22532 -69.20984,275 -2.04792,22.55919 -1.99788,25.63811 0.42702,26.27223 1.37124,0.35859 2.02513,1.54903 2.25,4.09622 0.29444,3.3353 1.95304,4.97466 23.31699,23.04653 l 23,19.45582 53.63889,0.065 c 50.4935,0.061 53.63074,-0.038 53.5,-1.6854 z M 1890.5338,998.27055 C 1910.8121,981.2214 1914,978.16287 1914,975.75698 c 0,-1.53126 0.5493,-3.66366 1.2206,-4.73866 0.9697,-1.55273 0.8626,-6.22676 -0.521,-22.73643 -8.9999,-107.38984 -38.2666,-215.36778 -84.4284,-311.49377 -6.7031,-13.95831 -7.7493,-15.60263 -9.374,-14.73308 -1.7274,0.92443 -2.6015,0.15033 -5.4441,-4.82127 -0.084,-0.14643 -14.0057,-2.72902 -30.9377,-5.73909 l -30.7854,-5.47286 -42.615,24.6059 c -54.4213,31.42287 -49.3007,28.21812 -48.208,30.17066 0.7212,1.28865 -0.038,2.26938 -3.614,4.66658 -4.1037,2.75121 -10.9827,13.41547 -73.5589,114.03504 -37.9676,61.05 -69.0774,111.79471 -69.133,112.76603 -0.077,1.35169 26.0589,15.78077 111.3989,61.5 l 111.5,59.73397 10.5,0.5 c 9.2139,0.4388 10.483,0.7144 10.3611,2.25 -0.1307,1.6466 3.0188,1.75 53.2838,1.75 l 53.4228,0 23.4661,-19.72945 z M 610,1013.3758 c 0,-0.3433 -5.78707,-9.9058 -12.86017,-21.24999 C 581.88158,967.65382 558.37408,929.78989 549.11466,914.77084 545.4766,908.8698 542.05,904.05712 541.5,904.07599 540.95,904.09486 491.225,928.81066 431,959 l -109.5,54.8897 144.25,0.055 c 79.3375,0.03 144.25,-0.2258 144.25,-0.5691 z m 339.5571,-2.1258 c 0.32736,-1.5125 1.56066,-5.9 2.74066,-9.75 1.18,-3.85 2.28971,-7.48968 2.46601,-8.08819 0.1763,-0.5985 -5.43592,-4.39638 -12.47161,-8.43974 C 935.25647,980.92872 887.875,953.57333 837,924.18232 786.125,894.79131 731.225,863.08426 715,853.72221 c -16.225,-9.36205 -30.49086,-17.66705 -31.70192,-18.45556 -2.15539,-1.40336 -2.3592,-1.11962 -9.64461,13.42691 -23.67755,47.27621 -38.37033,101.77649 -41.26263,153.05644 l -0.69092,12.25 158.63099,0 158.63099,0 0.5952,-2.75 z m 466.0521,-9.5 c -2.8923,-51.27995 -17.5851,-105.78023 -41.2627,-153.05644 -7.2854,-14.54653 -7.4892,-14.83027 -9.6446,-13.42691 -1.211,0.78851 -15.4769,9.09351 -31.7019,18.45556 -16.225,9.36205 -71.125,41.0691 -122,70.46011 -50.875,29.39101 -98.2565,56.7464 -105.2922,60.78975 -7.0357,4.04336 -12.6479,7.84124 -12.4716,8.43974 0.1763,0.59851 1.286,4.23819 2.466,8.08819 1.18,3.85 2.4133,8.2375 2.7407,9.75 l 0.5952,2.75 158.631,0 158.631,0 -0.6909,-12.25 z M 1620,959 c -60.225,-30.18934 -109.9549,-54.91452 -110.5109,-54.94485 -0.556,-0.0303 -12.693,18.73235 -26.9711,41.69485 -14.2781,22.9625 -29.6695,47.7125 -34.2031,55 l -8.2429,13.25 144.714,-0.055 L 1729.5,1013.89 1620,959 z m -168.9296,9.75 c 11.7176,-17.7375 27.0741,-40.9098 34.1256,-51.49399 l 12.8209,-19.24399 -55.0049,-27.50601 C 1412.7593,855.3777 1387.7741,843 1387.4892,843 c -0.2849,0 0.7968,2.60461 2.4038,5.78802 8.9572,17.74405 20.4149,49.26122 26.4336,72.71198 6.1847,24.09763 11.669,58.74974 11.6722,73.75 7e-4,3.1625 0.3985,5.75 0.8841,5.75 0.4855,0 10.4699,-14.5125 22.1875,-32.25 z M 624.57631,955 c 5.8447,-34.90092 19.5985,-78.70399 33.04311,-105.23566 1.32785,-2.62039 2.18002,-4.76434 1.89372,-4.76434 -0.2863,0 -24.35705,11.91992 -53.49056,26.48871 l -52.97,26.4887 8.33196,12.7613 c 4.58257,7.01871 12.07409,18.38629 16.64781,25.26129 4.57372,6.875 15.74647,23.75 24.82833,37.5 l 16.51248,25 1.30372,-14 c 0.71704,-7.7 2.47179,-20.975 3.89943,-29.5 z m 352.8913,6 c -1.80112,-3.49281 -156.4079,-271.27362 -156.9178,-271.78352 -0.83293,-0.83293 -29.45694,18.98062 -42.5737,29.46953 -30.33492,24.25752 -55.98797,52.3517 -79.22295,86.76175 l -8.74684,12.95371 2.74684,1.68311 c 1.51076,0.9257 37.84684,21.93456 80.74684,46.68635 42.9,24.75179 103.3773,59.66017 134.39399,77.57417 l 56.394,32.5709 7.23439,-6.708 c 6.91211,-6.40917 7.17696,-6.81937 5.94523,-9.208 z M 1148.5,939.48427 c 153.1384,-88.41383 209.0173,-120.70266 209.2344,-120.90323 0.4146,-0.38299 -17.02,-25.80594 -23.7171,-34.58402 -17.2616,-22.62507 -41.3258,-47.18467 -63.9934,-65.31101 -13.1472,-10.51328 -41.7415,-30.30176 -42.5776,-29.46561 -0.2305,0.2305 -35.9519,61.98661 -79.3809,137.23579 l -78.9617,136.8167 7.1982,6.75591 c 6.1907,5.81043 7.478,6.6102 9.1981,5.71474 1.1,-0.57264 29.45,-16.88931 63,-36.25927 z m -143,11.98021 c 3.85,-0.96925 7.5639,-1.90669 8.2531,-2.08318 0.9988,-0.25578 1.2017,-32.52061 1,-159.01916 l -0.2531,-158.69826 -7.5,0.21684 c -19.8736,0.57458 -49.75238,4.8836 -73.66756,10.62408 -29.99785,7.20052 -68.57765,21.67384 -90.96809,34.12692 l -6.13564,3.41251 47.17655,81.72789 c 25.94711,44.95033 61.54188,106.62444 79.09949,137.05358 27.72743,48.05446 32.19055,55.26494 33.9591,54.86339 1.11988,-0.25428 5.18615,-1.25535 9.03615,-2.22461 z M 1085.5389,898.75 c 17.5336,-30.3875 53.1087,-92.02755 79.0558,-136.97788 l 47.1766,-81.72789 -6.1357,-3.41251 c -22.3904,-12.45308 -60.9702,-26.9264 -90.968,-34.12692 -23.9153,-5.7405 -53.7942,-10.04952 -73.6676,-10.62407 l -7.5,-0.21683 0,158.83036 0,158.83036 6,1.24949 c 3.3,0.68722 7.125,1.71066 8.5,2.2743 1.375,0.56365 3.2109,1.05334 4.0798,1.0882 1.0611,0.0426 12.049,-18.08059 33.4591,-55.18661 z M 609.5,853.97667 c 29.15,-15.53358 53.35662,-28.5621 53.79249,-28.95226 0.43587,-0.39017 -17.78913,-11.44176 -40.5,-24.55909 -50.21193,-29.00138 -107.9601,-62.36527 -169.26317,-97.79147 -25.28387,-14.61121 -46.12097,-26.41553 -46.30466,-26.23184 -0.3024,0.30239 18.84758,29.5159 73.27328,111.77921 10.45113,15.79667 29.53822,44.70005 42.41576,64.22973 l 23.41369,35.50852 5.08631,-2.86997 c 2.79746,-1.57848 28.9363,-15.57926 58.0863,-31.11283 z m 925.4563,-12.21556 c 71.5354,-108.3026 109.608,-166.05381 110.4394,-167.52227 0.6932,-1.22429 0.1278,-1.1185 -2.5,0.46777 -1.8676,1.12744 -35.5707,20.61937 -74.8957,43.31541 -39.325,22.69604 -94.9,54.78424 -123.5,71.30712 -28.6,16.52288 -53.7115,31.02034 -55.8034,32.21657 l -3.8034,2.17498 58.8034,31.55657 c 32.3419,17.35611 59.4587,31.47908 60.2597,31.38438 0.8009,-0.0947 14.7509,-20.29995 31,-44.90053 z M 670.6414,796.25 c -0.33874,-5.9125 -1.34902,-34.825 -2.24506,-64.25 -0.89604,-29.425 -1.91428,-53.78843 -2.26275,-54.14095 -0.34848,-0.35252 -6.25859,-0.92779 -13.13359,-1.27838 -6.875,-0.35059 -14.75,-0.83904 -17.5,-1.08544 -2.75,-0.2464 -9.95,-0.69421 -16,-0.99514 -12.02608,-0.59818 -18.87975,-0.9975 -43,-2.50537 -8.8,-0.55013 -19.825,-1.21531 -24.5,-1.47818 -21.8748,-1.22998 -27.88977,-1.59634 -33,-2.00996 -3.025,-0.24485 -10,-0.69224 -15.5,-0.9942 -22.26293,-1.2223 -29.59185,-1.65641 -42.5,-2.51739 -27.60656,-1.84138 -39.51181,-2.23338 -38.5,-1.26768 0.55,0.52494 41.05,24.05351 90,52.28573 48.95,28.23222 104.3,60.21778 123,71.07903 18.7,10.86125 34.39539,19.78377 34.87865,19.82783 0.48999,0.0447 0.60621,-4.67512 0.26275,-10.6699 z M 1454.5,762.71644 c 39.05,-22.5383 93.275,-53.81442 120.5,-69.50251 27.225,-15.68809 50.175,-29.15186 51,-29.91948 1.3033,-1.21268 1.1066,-1.33341 -1.5,-0.92073 -1.65,0.26122 -8.625,0.74957 -15.5,1.0852 -6.875,0.33564 -14.975,0.80747 -18,1.04852 -3.025,0.24104 -10.675,0.68612 -17,0.98906 -6.325,0.30295 -13.525,0.75137 -16,0.99651 -2.475,0.24513 -9.675,0.70882 -16,1.03042 -6.325,0.32159 -13.975,0.76105 -17,0.97657 -3.025,0.21552 -10.675,0.65498 -17,0.97657 -6.325,0.3216 -13.525,0.78193 -16,1.02296 -2.475,0.24103 -10.125,0.70882 -17,1.03953 -6.875,0.33071 -14.525,0.76313 -17,0.96094 -2.475,0.19781 -10.125,0.63349 -17,0.96818 -6.875,0.33469 -14.075,0.79884 -16,1.03145 -1.925,0.23261 -9.575,0.68479 -17,1.00484 -14.6857,0.63302 -23.2162,1.40526 -24,2.17266 -0.6448,0.63132 -0.5101,-2.36393 -1.3862,30.82287 -0.4211,15.95 -0.9203,30.125 -1.1093,31.5 -0.1891,1.375 -0.6223,15.1 -0.9627,30.5 -0.3404,15.4 -0.873,29.72818 -1.1835,31.8404 -0.5548,3.77331 -0.5235,3.81869 1.7885,2.59757 1.2943,-0.68355 34.3032,-19.68324 73.3532,-42.22153 z m -88.0829,-3.73642 c 1.399,-23.36401 2.7617,-45.40502 3.0282,-48.98002 0.2665,-3.575 0.7889,-12.28421 1.1609,-19.35379 l 0.6765,-12.85379 -12.8914,0.65158 c -7.0902,0.35837 -14.9163,0.83855 -17.3913,1.06706 -2.475,0.22852 -9.9,0.67324 -16.5,0.98827 -6.6,0.31503 -14.025,0.76777 -16.5,1.00608 -2.475,0.23832 -9.675,0.68483 -16,0.99226 -6.325,0.30743 -14.425,0.75912 -18,1.00377 -3.575,0.24464 -10.775,0.7294 -16,1.07724 -5.225,0.34784 -9.6035,0.72598 -9.7301,0.84032 -0.1266,0.11434 3.6984,2.93438 8.5,6.26676 36.4017,25.26353 73.7969,62.80146 99.9439,100.32535 3.7324,5.35647 6.8702,9.67376 6.9728,9.59398 0.1027,-0.0798 1.3314,-19.26106 2.7305,-42.62507 z m -654.8788,6.45404 c 21.44077,-26.09192 54.15518,-56.34757 79.67891,-73.69038 4.24447,-2.88403 7.73197,-5.58118 7.75,-5.99368 0.018,-0.4125 -3.00471,-0.78443 -6.71721,-0.82651 -3.7125,-0.0421 -7.425,-0.20661 -8.25,-0.36563 -0.825,-0.15901 -7.125,-0.59343 -14,-0.96536 -6.875,-0.37194 -14.75,-0.86539 -17.5,-1.09655 -2.75,-0.23117 -10.175,-0.6792 -16.5,-0.99563 -11.96521,-0.59861 -35.7953,-2.07642 -49.36258,-3.0612 l -7.86258,-0.5707 0.64962,9.81579 C 680.42054,702.73512 686,796.12206 686,797.74312 c 0,0.78687 3.88501,-3.89593 8.63336,-10.40622 4.74834,-6.5103 12.35557,-16.36657 16.90494,-21.90284 z M 809,669.5037 c 0,-0.90713 -145.2591,-252.57793 -145.59107,-252.24596 -0.15274,0.15273 0.13341,6.56973 0.63588,14.25998 0.50248,7.69025 2.26832,36.93228 3.9241,64.98228 1.65578,28.05 3.23904,54.375 3.51837,58.5 0.27933,4.125 1.18287,19.2 2.00788,33.5 0.82501,14.3 1.72275,29.375 1.99498,33.5 0.27224,4.125 0.99514,15.6 1.60644,25.5 0.61131,9.9 1.17716,18.06285 1.25745,18.13968 0.22774,0.21792 26.98702,1.25727 50.14597,1.94771 11.55,0.34434 29.1,0.91892 39,1.27685 31.21873,1.12868 41.5,1.2871 41.5,0.63946 z m 471.5,-1.02202 c 14.85,-0.38701 29.025,-0.8294 31.5,-0.98309 5.4369,-0.33761 55.8124,-1.92985 58.1623,-1.83835 1.7861,0.0695 2.1882,-2.67198 3.3234,-22.66024 1.0115,-17.81088 3.4757,-59.4791 3.9919,-67.5 0.2831,-4.4 1.19,-19.7 2.0154,-34 0.8253,-14.3 1.7272,-29.15 2.0043,-33 1.4667,-20.38532 5.5552,-92.95472 5.3,-94.07426 -0.2384,-1.046 -146.4665,251.10427 -147.6225,254.5549 -0.1982,0.59151 2.5366,0.82113 7,0.58774 4.0288,-0.21067 19.4752,-0.69968 34.3252,-1.0867 z m -615,-15.07874 c 0,-13.31366 -1.27169,-60.52443 -2.04456,-75.90294 -0.27641,-5.5 -1.65853,-46.14899 -3.07137,-90.33108 l -2.56881,-80.33108 -4.80031,-8.31195 c -4.21598,-7.30016 -4.62198,-8.49029 -3.3353,-9.77697 1.28667,-1.28667 -1.72262,-6.99046 -24.72148,-46.85696 -14.40256,-24.96558 -26.30546,-45.52481 -26.45088,-45.68718 -0.14542,-0.16237 -13.25655,-5.02052 -29.13584,-10.79588 L 540.5,274.90824 l -3.45408,1.62702 c -3.20539,1.50988 -3.54216,1.50658 -4.67728,-0.0458 -1.09513,-1.49769 -2.62574,-0.72515 -14.62072,7.37945 -89.00639,60.13858 -173.26081,144.3485 -232.57598,232.45316 l -8.63228,12.82208 2.36968,1.78746 c 2.30477,1.73849 2.32315,1.86663 0.67109,4.67791 -1.68519,2.86767 -1.61916,3.11002 8.36964,30.7233 5.53752,15.30805 10.50526,28.64945 11.03943,29.64755 0.53417,0.99811 18.86756,12.15112 40.74086,24.78449 55.8687,32.26809 51.15115,29.76017 52.56916,27.94652 1.04886,-1.34149 2.27406,-0.92482 9.70048,3.29892 9.84984,5.60206 9.67737,5.5782 47,6.50379 12.375,0.30689 26.775,0.74826 32,0.98082 5.225,0.23255 19.175,0.68377 31,1.0027 11.825,0.31894 24.875,0.77177 29,1.0063 4.125,0.23452 18.975,0.71576 33,1.06942 14.025,0.35366 27.525,0.7693 30,0.92366 2.475,0.15435 16.425,0.60486 31,1.00113 14.575,0.39627 26.64318,0.85198 26.81818,1.01269 0.17499,0.16071 1.07499,0.18034 2,0.0436 1.46764,-0.21691 1.68182,-1.76439 1.68182,-12.15151 z m 769.5,10.09572 c 17.4276,-0.67488 63.8314,-2.19662 91.5,-3.00059 21.4223,-0.62248 44.0399,-1.39403 58.5,-1.9956 5.775,-0.24025 19.95,-0.70962 31.5,-1.04304 l 21,-0.60623 8.5,-4.83861 c 7.4262,-4.22736 8.6517,-4.64465 9.7005,-3.3032 1.418,1.81365 -3.2996,4.32157 52.5691,-27.94652 21.8733,-12.63337 40.2067,-23.78638 40.7409,-24.78449 0.5342,-0.9981 5.5019,-14.3395 11.0394,-29.64755 10.0057,-27.65978 10.0576,-27.85089 8.361,-30.73792 -1.6132,-2.74515 -1.6114,-2.97512 0.033,-4.17727 1.5877,-1.1609 0.948,-2.44411 -7.3124,-14.66972 -59.9014,-88.65526 -142.4379,-171.39663 -231.0407,-231.61417 -9.7455,-6.62337 -13.747,-8.83375 -14.644,-8.0893 -0.8598,0.71359 -2.2524,0.54493 -4.5903,-0.55592 -3.3363,-1.57098 -3.5262,-1.51842 -32.2275,8.92037 -15.8793,5.77536 -28.9905,10.63351 -29.1359,10.79588 -0.1454,0.16237 -12.0483,20.7216 -26.4509,45.68718 -23.0663,39.98345 -26.0109,45.56751 -24.7131,46.86531 1.2978,1.29779 1.083,2.14472 -1.8026,7.10804 -1.8018,3.09908 -3.5213,6.53469 -3.8212,7.63469 -0.2998,1.1 -0.8221,13.475 -1.1605,27.5 -0.3385,14.025 -0.8093,28.65 -1.0464,32.5 -0.2371,3.85 -0.676,16.9 -0.9752,29 -0.2993,12.1 -0.7571,26.95 -1.0174,33 -0.4691,10.90363 -0.6538,16.47005 -2.5054,75.5 -0.5262,16.775 -1.2499,38.0829 -1.6082,47.35088 l -0.6515,16.85088 19.8799,-0.62888 c 10.9339,-0.34589 25.0548,-0.82929 31.3798,-1.07422 z M 857.41842,602.11781 c 16.85779,-31.5602 30.52252,-57.45774 30.36606,-57.55007 -0.36107,-0.21309 -17.5698,-11.56073 -59.28448,-39.09291 -18.15,-11.97922 -42.225,-27.864 -53.5,-35.29953 -11.275,-7.43553 -36.925,-24.37442 -57,-37.64199 -41.82955,-27.64514 -39.4631,-26.12477 -38.81558,-24.93782 12.37517,22.68452 146.36632,253.23297 146.86115,252.69288 0.39727,-0.4336 14.51505,-26.61036 31.37285,-58.17056 z m 321.63658,3.99208 C 1164.1727,576.34945 1151.7973,552 1151.5541,552 c -0.2433,0 -16.5549,10.65088 -36.2482,23.66862 -19.6932,13.01775 -42.5094,28.08154 -50.7026,33.4751 -8.1932,5.39355 -14.2682,9.99122 -13.5,10.21703 0.7682,0.22581 7.2467,0.89569 14.3967,1.48863 42.251,3.50378 89.5996,16.45628 131.5,35.97265 4.675,2.17752 8.638,3.83282 8.8068,3.67844 0.1687,-0.15437 -11.8696,-24.63013 -26.7518,-54.39058 z m -312.27052,43.79729 c 34.04148,-14.60408 78.38378,-25.81673 114.61281,-28.98166 21.74181,-1.89933 21.96491,-0.10674 -1.9702,-15.82882 -11.5099,-7.56043 -34.32714,-22.60009 -50.70498,-33.42147 C 912.34427,560.85386 898.73259,552 898.47393,552 c -0.25866,0 -12.61852,24.29318 -27.46635,53.98484 l -26.99606,53.98484 5.74424,-2.61068 c 3.15933,-1.43588 10.82226,-4.7892 17.02872,-7.45182 z M 1296.0228,534 c 39.1737,-67.925 71.4435,-123.87425 71.7106,-124.33166 0.6674,-1.14299 -1.5378,0.28292 -49.2334,31.83581 -23.1,15.28173 -47.7104,31.53448 -54.6897,36.11721 -6.9793,4.58273 -32.7741,21.61898 -57.3217,37.85833 l -44.6321,29.5261 2.9587,5.2471 c 1.6273,2.88591 13.6349,25.27211 26.6836,49.74711 31.538,59.15467 31.6154,59.29354 32.5164,58.33373 0.4305,-0.45855 32.834,-56.40873 72.0076,-124.33373 z M 259.75,606.82012 c 12.7875,-3.40676 23.24802,-6.44747 23.2456,-6.75712 -0.004,-0.45265 -27.46191,-16.74695 -30.11442,-17.87045 -0.76796,-0.32527 -5.56295,7.59694 -13.35045,22.05745 -2.59171,4.8125 -4.33386,8.75321 -3.87146,8.75712 0.4624,0.004 11.30323,-2.78023 24.09073,-6.187 z M 1808.4693,604.25 c -7.7875,-14.46051 -12.5825,-22.38272 -13.3505,-22.05745 -2.671,1.13134 -30.1109,17.41946 -30.1144,17.87571 0,0.62003 43.3412,12.59857 46.3363,12.80492 1.5448,0.10643 1.0831,-1.28 -2.8714,-8.62318 z M 1045.5,603.30032 c 7.8089,-4.9163 17.1841,-10.74037 56,-34.78828 37.2698,-23.09006 44.4993,-27.70194 44.4448,-28.35268 C 1145.9145,539.79671 1120.5143,488.875 1089.5,427 l -56.3897,-112.5 -0.055,148.36501 -0.055,148.36501 2.25,-1.44653 c 1.2375,-0.79559 5.85,-3.71302 10.25,-6.48317 z M 1014.9448,463.75 1014.8897,318.5 959.37758,429.38273 c -30.53166,60.98551 -55.14434,111.23711 -54.69485,111.67024 0.4495,0.43312 8.24227,5.3807 17.31727,10.99462 9.075,5.61392 21.225,13.13883 27,16.72201 5.775,3.58318 15.9,9.86224 22.5,13.95347 6.6,4.09122 18.75,11.65865 27,16.81649 8.25,5.15784 15.3375,9.39647 15.75,9.41917 0.4125,0.0227 0.7252,-65.32123 0.6948,-145.20873 z m -725.94989,127 c -0.0159,-0.78078 -12.93232,-48.02074 -13.20425,-48.29267 -0.45292,-0.45293 -16.87077,27.13299 -17.43703,29.2984 -0.35655,1.36344 2.79848,3.65398 14.34464,10.41416 13.34308,7.81226 16.31284,9.37583 16.29664,8.58011 z m 1486.41759,-8.73518 c 11.5436,-6.66423 14.5989,-8.86308 14.2373,-10.24608 -0.5686,-2.17426 -16.9858,-29.76603 -17.4405,-29.31141 -0.292,0.29208 -13.1916,47.55187 -13.2042,48.376 -0.01,0.59801 1.5212,-0.22453 16.4074,-8.81851 z M 954.52753,420.48517 1014.9661,307.5 l 0.017,-10.25 c 0.016,-9.57768 0.1482,-10.25 2.017,-10.25 1.9751,0 1.9999,-0.6638 1.9914,-53.25 l -0.01,-53.25 -19.78963,-23.5 c -18.56987,-22.05156 -20.01475,-23.51895 -23.44223,-23.80743 -2.57145,-0.21644 -3.83512,-0.88244 -4.26917,-2.25 -0.76845,-2.42119 -3.16729,-2.46229 -25.48177,-0.43658 -107.50101,9.75893 -213.74561,38.76769 -307.82819,84.04864 -13.40556,6.45196 -15.24943,7.62545 -14.70027,9.3557 0.55018,1.73347 -1.19095,3.60819 -5.19786,5.59666 -0.12448,0.0618 -2.6883,13.91792 -5.69738,30.79144 l -5.47106,30.67913 26.57208,46.03018 c 21.88678,37.91395 26.81883,45.82538 27.97154,44.86871 1.75766,-1.45872 1.82449,-1.38621 6.79299,7.36976 4.5957,8.09898 4.89301,8.33463 30.05815,23.82375 8.25,5.07787 26.925,16.65212 41.5,25.72056 14.575,9.06844 32.8,20.40767 40.5,25.1983 7.7,4.79062 24.125,15.01147 36.5,22.71301 12.375,7.70153 32.85,20.41545 45.5,28.25316 12.65,7.8377 24.575,15.30042 26.5,16.58381 1.925,1.28339 3.85752,2.24301 4.29449,2.13249 0.43697,-0.11052 27.99184,-51.04428 61.23304,-113.18612 z m 217.24657,104.35914 c 8.0993,-5.03563 21.2509,-13.20733 29.2259,-18.15934 22.4078,-13.91391 64.4254,-40.05715 97.5,-60.66424 16.5,-10.2803 34.6835,-21.57804 40.4077,-25.10609 36.0336,-22.20878 34.1379,-20.7864 39.2948,-29.48372 2.5864,-4.362 5.1085,-8.60281 5.6046,-9.42401 0.7347,-1.2159 1.1845,-1.25879 2.4228,-0.23105 1.3141,1.09062 5.1301,-4.99044 28.0928,-44.76812 l 26.5721,-46.03018 -5.4711,-30.67913 c -3.0091,-16.87352 -5.5729,-30.72966 -5.6974,-30.79144 -3.4296,-1.70196 -5.7746,-3.93877 -5.3337,-5.08762 0.6484,-1.68972 -11.6927,-8.09522 -38.3926,-19.92726 -90.5527,-40.12834 -186.5257,-64.95585 -286,-73.98612 -21.7043,-1.97032 -22.7239,-1.95136 -23.4818,0.43658 -0.434,1.36756 -1.6977,2.03356 -4.2691,2.25 -3.4275,0.28848 -4.8724,1.75587 -23.4423,23.80743 l -19.7896,23.5 -0.01,53.25 c -0.01,52.5862 0.016,53.25 1.9914,53.25 1.834,0 2,0.66667 2,8.03324 0,6.69847 0.4387,8.90005 2.6401,13.25 1.452,2.86922 28.3869,53.36676 59.8553,112.21676 31.4684,58.85 57.9669,108.4625 58.8856,110.25 0.9187,1.7875 1.8947,3.25 2.1688,3.25 0.2741,0 7.1251,-4.12006 15.2243,-9.15569 z m -588.35055,-255.03 c -4.82964,-8.42287 -8.8789,-15.455 -8.99834,-15.62696 -0.24206,-0.34847 -25.7806,14.79556 -28.924,17.15155 -1.96505,1.47282 -1.95661,1.50877 0.5,2.12974 1.37433,0.3474 12.17379,3.25293 23.99879,6.45673 11.825,3.2038 21.65856,5.68518 21.85236,5.51417 0.19379,-0.17101 -3.59917,-7.20236 -8.42881,-15.62523 z M 1479.5,279.49586 c 28.2161,-7.5201 25.257,-6.46192 22.9369,-8.20218 -3.093,-2.32009 -28.6226,-17.4512 -28.8621,-17.10633 -1.2946,1.86372 -17.5748,30.73615 -17.5748,31.16835 0,0.31984 0.5625,0.39152 1.25,0.15928 0.6875,-0.23224 10.7,-2.94084 22.25,-6.01912 z M 607.95104,256.4461 c 3.45097,-12.95464 6.04222,-23.78618 5.75831,-24.07008 -0.5434,-0.5434 -27.35716,14.04716 -29.39141,15.99319 -0.90019,0.86115 0.88823,4.75836 7.5,16.34359 4.77513,8.36704 8.94678,15.22954 9.27033,15.25 0.32355,0.0205 3.41179,-10.56205 6.86277,-23.5167 z m 848.23106,8.2667 c 6.6117,-11.58523 8.4001,-15.48244 7.5,-16.34359 -2.0343,-1.94603 -28.848,-16.53659 -29.3915,-15.99319 -0.6464,0.6464 11.8168,47.63765 12.6211,47.58678 0.3236,-0.0205 4.4952,-6.88296 9.2704,-15.25 z M 1019,150 l 0,-18 -12.75,0.009 c -7.0125,0.005 -15.15281,0.29724 -18.08957,0.6499 l -5.33957,0.64121 17.32884,17.3501 c 9.5309,9.54255 17.6712,17.3501 18.0896,17.3501 0.4184,0 0.7607,-8.1 0.7607,-18 z m 28.8503,0.6499 17.3288,-17.3501 -5.3395,-0.64121 c -2.9368,-0.35266 -11.0771,-0.64512 -18.0896,-0.6499 L 1029,132 l 0,18 c 0,9.9 0.3423,18 0.7607,18 0.4184,0 8.5587,-7.80755 18.0896,-17.3501 z"
     id="path2987"
     style="fill:#000000" />
</svg>
