<svg xmlns="http://www.w3.org/2000/svg"
    xmlns:xlink="http://www.w3.org/1999/xlink">
    
<rect x="10" y="10" width="20" height="30"
      style="stroke: #3333cc; fill:none;" />

<rect x="50" y="10" width="20" height="30"
      style="stroke: #000000; fill:none;"
      transform="skewX(10)" />
<rect x="100" y="10" width="20" height="30"
      style="stroke: #000000; fill:none;"
      transform="skewX(45)" />
<rect x="150" y="10" width="20" height="30"
      style="stroke: #000000; fill:none;"
      transform="skewX(60)" />

</svg>